{
    "type":"object",
    "properties":{
        "recoveryToken":{
            "type":"string",
            "pattern":"^[a-zA-Z0-9+-]{5,30}$"
        },
        "password":{
            "type":"string",
            "pattern":"^[a-zA-Z0-9]{8,16}$"
        }
    },
    "additionalProperties": false,
    "required":["recoveryToken","password"]
}