{
    "title":"login",
    "type":"object",
    "properties":{
        "username": {
            "type": "string",
            "pattern": "^[a-z0-9]{4,}$"
        },
        "password": {
            "type": "string",
            "pattern": "^.{8,16}$"
        }
    },
    "additionalProperties": false,
    "required":["username", "password"]
}